{
    "id":"f6e95aef-7c0f-4c22-914a-238c562d660e",
    "schema":"https://metadata.datadrivendiscovery.org/schemas/v0/pipeline.json",
    "created":"2020-06-03T22:38:41.018582Z",
    "inputs":[
        {
            "name":"input dataset"
        }
    ],
    "outputs":[
        {
            "data":"steps.7.produce",
            "name":"predictions of input dataset"
        }
    ],
    "steps":[
        {
            "type":"PRIMITIVE",
            "primitive":{
                "id":"f31f8c1f-d1c5-43e5-a4b2-2ae4a761ef2e",
                "version":"0.2.0",
                "python_path":"d3m.primitives.data_transformation.denormalize.Common",
                "name":"Denormalize datasets",
                "digest":"c4177842020cea66c8904a5567098a7040c98a8270a1297abb57353ca54f5b37"
            },
            "arguments":{
                "inputs":{
                    "type":"CONTAINER",
                    "data":"inputs.0"
                }
            },
            "outputs":[
                {
                    "id":"produce"
                }
            ]
        },
        {
            "type":"PRIMITIVE",
            "primitive":{
                "id":"4b42ce1e-9b98-4a25-b68e-fad13311eb65",
                "version":"0.3.0",
                "python_path":"d3m.primitives.data_transformation.dataset_to_dataframe.Common",
                "name":"Extract a DataFrame from a Dataset",
                "digest":"8457eeb19b44f5b26a5fb721a51087d618962a35f0aff17f4ad25d341a2170f2"
            },
            "arguments":{
                "inputs":{
                    "type":"CONTAINER",
                    "data":"steps.0.produce"
                }
            },
            "outputs":[
                {
                    "id":"produce"
                }
            ]
        },
        {
            "type":"PRIMITIVE",
            "primitive":{
                "id":"4503a4c6-42f7-45a1-a1d4-ed69699cf5e1",
                "version":"0.4.0",
                "python_path":"d3m.primitives.data_transformation.extract_columns_by_semantic_types.Common",
                "name":"Extracts columns by semantic type",
                "digest":"f036d0219339094750e3408253e07b670d1398c6c8f5d95de4fe69a3e9884017"
            },
            "arguments":{
                "inputs":{
                    "type":"CONTAINER",
                    "data":"steps.1.produce"
                }
            },
            "outputs":[
                {
                    "id":"produce"
                }
            ],
            "hyperparams":{
                "semantic_types":{
                    "type":"VALUE",
                    "data":[
                        "https://metadata.datadrivendiscovery.org/types/TrueTarget"
                    ]
                }
            }
        },
        {
            "type":"PRIMITIVE",
            "primitive":{
                "id":"7ddf2fd8-2f7f-4e53-96a7-0d9f5aeecf93",
                "version":"1.5.3",
                "python_path":"d3m.primitives.data_transformation.to_numeric.DSBOX",
                "name":"ISI DSBox To Numeric DataFrame",
                "digest":"78997a9147fd4a2ccbadc4e9ee1953d349eb718e1e76ec78337ca2e10cad9752"
            },
            "arguments":{
                "inputs":{
                    "type":"CONTAINER",
                    "data":"steps.2.produce"
                }
            },
            "outputs":[
                {
                    "id":"produce"
                }
            ],
            "hyperparams":{
                "drop_non_numeric_columns":{
                    "type":"VALUE",
                    "data":false
                }
            }
        },
        {
            "type":"PRIMITIVE",
            "primitive":{
                "id":"dsbox-featurizer-image-dataframe-to-tensor",
                "version":"1.5.3",
                "python_path":"d3m.primitives.data_preprocessing.dataframe_to_tensor.DSBOX",
                "name":"DSBox Image Featurizer dataframe to tensor transformer",
                "digest":"313a689bfc9d28034230d7f9066642c65778ce0f155c1c8e3671241d9f3f68df"
            },
            "arguments":{
                "inputs":{
                    "type":"CONTAINER",
                    "data":"steps.1.produce"
                }
            },
            "outputs":[
                {
                    "id":"produce"
                }
            ]
        },
        {
            "type":"PRIMITIVE",
            "primitive":{
                "id":"dsbox-featurizer-image-resnet50",
                "version":"1.5.3",
                "python_path":"d3m.primitives.feature_extraction.resnet50_image_feature.DSBOX",
                "name":"DSBox Image Featurizer ResNet50",
                "digest":"4086ffaab3b6aa7a3c416d63f5ccdff365c76b31e8868d3f76aeb58cbf999280"
            },
            "arguments":{
                "inputs":{
                    "type":"CONTAINER",
                    "data":"steps.4.produce"
                }
            },
            "outputs":[
                {
                    "id":"produce"
                }
            ],
            "hyperparams":{
                "generate_metadata":{
                    "type":"VALUE",
                    "data":true
                }
            }
        },
        {
            "type":"PRIMITIVE",
            "primitive":{
                "id":"2fb28cd1-5de6-3663-a2dc-09c786fba7f4",
                "version":"2020.5.26",
                "python_path":"d3m.primitives.feature_extraction.pca.SKlearn",
                "name":"sklearn.decomposition.pca.PCA",
                "digest":"51e239fadbdcb00141a42ace5d3b36e2c777ba9952d6cd50b6226fbe766be7cf"
            },
            "arguments":{
                "inputs":{
                    "type":"CONTAINER",
                    "data":"steps.5.produce"
                }
            },
            "outputs":[
                {
                    "id":"produce"
                }
            ],
            "hyperparams":{
                "add_index_columns":{
                    "type":"VALUE",
                    "data":true
                },
                "use_semantic_types":{
                    "type":"VALUE",
                    "data":true
                }
            }
        },
        {
            "type":"PRIMITIVE",
            "primitive":{
                "id":"2fb16403-8509-3f02-bdbf-9696e2fcad55",
                "version":"2020.5.26",
                "python_path":"d3m.primitives.regression.ridge.SKlearn",
                "name":"sklearn.linear_model.ridge.Ridge",
                "digest":"29b73f2f7ee8c3c0742cb72e6c56a2eb7d11d92967722f395c0cdef3f83522b3"
            },
            "arguments":{
                "inputs":{
                    "type":"CONTAINER",
                    "data":"steps.6.produce"
                },
                "outputs":{
                    "type":"CONTAINER",
                    "data":"steps.3.produce"
                }
            },
            "outputs":[
                {
                    "id":"produce"
                }
            ],
            "hyperparams":{
                "add_index_columns":{
                    "type":"VALUE",
                    "data":true
                }
            }
        }
    ],
    "name":"TA1ImageProcessingRegressionTemplate:140474796969200",
    "description":"",
    "digest":"af4f7bd91525aa05916b94d74753a4672eaa3c79a9e8019019eb62f48cbf698e"
}