{
    "id": "7559d4ff-ebe1-4374-ad71-7c5927a59ce7",
    "schema": "https://metadata.datadrivendiscovery.org/schemas/v0/pipeline.json",
    "created": "2020-06-02T22:19:29.601507Z",
    "inputs": [
        {
            "name": "inputs"
        }
    ],
    "outputs": [
        {
            "data": "steps.1.produce",
            "name": "Results"
        }
    ],
    "steps": [
        {
            "type": "PRIMITIVE",
            "primitive": {
                "id": "a22f9bd3-818e-44e9-84a3-9592c5a85408",
                "version": "1.8.7",
                "python_path": "d3m.primitives.data_transformation.vertex_classification_parser.VertexClassificationParser",
                "name": "Vertex Classification Parser"
            },
            "arguments": {
                "inputs": {
                    "type": "CONTAINER",
                    "data": "inputs.0"
                }
            },
            "outputs": [
                {
                    "id": "produce"
                }
            ]
        },
        {
            "type": "PRIMITIVE",
            "primitive": {
                "id": "dca25a46-7a5f-48d9-ac9b-d14d4d671b0b",
                "version": "1.8.7",
                "python_path": "d3m.primitives.classification.vertex_nomination.VertexClassification",
                "name": "Vertex Classification"
            },
            "arguments": {
                "inputs": {
                    "type": "CONTAINER",
                    "data": "steps.0.produce"
                }
            },
            "outputs": [
                {
                    "id": "produce"
                }
            ]
        }
    ]
}